<svg id="Layer_1" data-name="Layer 1" xmlns="http://www.w3.org/2000/svg" viewBox="0 0 262 296">
  <defs>
    <style>
      .cls-1 {
        fill: #fff;
      }
      .cls-2 {
        fill: #111;
      }
    </style>
  </defs>
  <title>indybay datepicker</title>
  <g>
    <path class="cls-1" d="M111,280h72V233H111Zm26.74-31,6.19,5.05,14.21-15.47,11.05,10.15-23.78,25.87-17.15-14Z" transform="translate(-17)"/>
    <path class="cls-1" d="M183,108H111v48h72Zm-37.59,41.61-17.15-14L137.74,124l6.19,5,14.22-15.47,11,10.15Z" transform="translate(-17)"/>
    <rect class="cls-1" x="181" y="233" width="65" height="47"/>
    <path class="cls-1" d="M111,218h72V171H111Zm26.74-32,6.19,5.05,14.21-15.47,11.05,10.15-23.78,25.87-17.15-14Z" transform="translate(-17)"/>
    <path class="cls-1" d="M33,280H96V233H33Zm21.24-31,6.19,5.05,14.22-15.47,11,10.15L61.91,274.61l-17.15-14Z" transform="translate(-17)"/>
    <path class="cls-1" d="M96,108H33v48H96ZM61.91,149.61l-17.15-14L54.24,124l6.19,5,14.22-15.47,11,10.15Z" transform="translate(-17)"/>
    <path class="cls-1" d="M33,218H96V171H33Zm21.24-32,6.19,5.05,14.22-15.47,11,10.15L61.91,211.61l-17.15-14Z" transform="translate(-17)"/>
    <path class="cls-1" d="M198,156h65V108H198Zm21.74-32,6.19,5,14.21-15.47,11.05,10.15-23.78,25.87-17.15-14Z" transform="translate(-17)"/>
    <path class="cls-1" d="M263,171H198v47h65Zm-35.59,40.61-17.15-14L219.74,186l6.19,5.05,14.22-15.47,11,10.15Z" transform="translate(-17)"/>
    <path class="cls-1" d="M73,60a8,8,0,0,0,8-8V24a8,8,0,0,0-16,0V52A8,8,0,0,0,73,60Z" transform="translate(-17)"/>
    <path class="cls-1" d="M148,60a8,8,0,0,0,8-8V24a8,8,0,0,0-16,0V52A8,8,0,0,0,148,60Z" transform="translate(-17)"/>
    <path class="cls-1" d="M223,60a8,8,0,0,0,8-8V24a8,8,0,0,0-16,0V52A8,8,0,0,0,223,60Z" transform="translate(-17)"/>
    <path class="cls-1" d="M263,50H247v2a24,24,0,0,1-48,0V50H172v2a24,24,0,0,1-48,0V50H97v2a24,24,0,0,1-48,0V50H33V92H263Z" transform="translate(-17)"/>
    <g>
      <path class="cls-2" d="M271.33,34H247V24a24,24,0,0,0-48,0V34H172V24a24,24,0,0,0-48,0V34H97V24a24,24,0,0,0-48,0V34H25.33A8.29,8.29,0,0,0,17,42V288a8.29,8.29,0,0,0,8.33,8h246a7.72,7.72,0,0,0,7.67-8V42A7.72,7.72,0,0,0,271.33,34ZM96,171v47H33V171ZM33,156V108H96v48Zm63,77v47H33V233Zm87-62v47H111V171Zm-72-15V108h72v48Zm72,77v47H111V233Zm80,0v47H198V233Zm-65-15V171h65v47Zm65-62H198V108h65ZM215,24a8,8,0,0,1,16,0V52a8,8,0,0,1-16,0Zm-75,0a8,8,0,0,1,16,0V52a8,8,0,0,1-16,0ZM65,24a8,8,0,0,1,16,0V52a8,8,0,0,1-16,0ZM33,50H49v2a24,24,0,0,0,48,0V50h27v2a24,24,0,0,0,48,0V50h27v2a24,24,0,0,0,48,0V50h16V92H33Z" transform="translate(-17)"/>
      <polygon class="cls-2" points="43.43 129.06 37.24 124.01 27.76 135.64 44.91 149.61 68.69 123.74 57.65 113.59 43.43 129.06"/>
      <polygon class="cls-2" points="126.93 129.06 120.74 124.01 111.26 135.64 128.41 149.61 152.19 123.74 141.15 113.59 126.93 129.06"/>
      <polygon class="cls-2" points="234.19 123.74 223.15 113.59 208.93 129.06 202.74 124.01 193.26 135.64 210.41 149.61 234.19 123.74"/>
      <polygon class="cls-2" points="68.69 185.74 57.65 175.59 43.43 191.06 37.24 186.01 27.76 197.64 44.91 211.61 68.69 185.74"/>
      <polygon class="cls-2" points="152.19 185.74 141.15 175.59 126.93 191.06 120.74 186.01 111.26 197.64 128.41 211.61 152.19 185.74"/>
      <polygon class="cls-2" points="208.93 191.06 202.74 186.01 193.26 197.64 210.41 211.61 234.19 185.74 223.15 175.59 208.93 191.06"/>
      <polygon class="cls-2" points="68.69 248.74 57.65 238.59 43.43 254.06 37.24 249.01 27.76 260.64 44.91 274.61 68.69 248.74"/>
      <polygon class="cls-2" points="152.19 248.74 141.15 238.59 126.93 254.06 120.74 249.01 111.26 260.64 128.41 274.61 152.19 248.74"/>
    </g>
  </g>
</svg>
