<svg id="Layer_1" data-name="Layer 1" xmlns="http://www.w3.org/2000/svg" viewBox="0 0 485.2 454.21">
  <defs>
    <style>
      .cls-1 {
        fill: #111;
      }
    </style>
  </defs>
  <title>indybay print</title>
  <g>
    <rect class="cls-1" x="151.63" y="332.91" width="151.62" height="30.33"/>
    <path class="cls-1" d="M121.31,48.33h242.6V109h30.32V48.33A30.33,30.33,0,0,0,363.91,18H121.31A30.34,30.34,0,0,0,91,48.33V109h30.32Z" transform="translate(-0.01 -18)"/>
    <rect class="cls-1" x="151.63" y="272.26" width="181.94" height="30.33"/>
    <path class="cls-1" d="M454.88,108.3H30.33A30.34,30.34,0,0,0,0,138.63v182A30.31,30.31,0,0,0,30.33,350.9H91v91a30.31,30.31,0,0,0,30.32,30.33h242.6a30.3,30.3,0,0,0,30.32-30.33v-91h60.65a30.3,30.3,0,0,0,30.32-30.32V138.63A30.33,30.33,0,0,0,454.88,108.3Zm-91,333.59H121.31v-182h242.6v182Zm60.64-242.61A30.33,30.33,0,1,1,454.88,169,30.3,30.3,0,0,1,424.55,199.28Z" transform="translate(-0.01 -18)"/>
  </g>
</svg>
